{
  "activeViewId" : "7e0b2e21-1959-4ce9-bd8c-e1912d28be5d",
  "appPageId" : "281f6251-64bd-4600-818f-8aeca71e7b2f",
  "id" : "5bd4089f-6c80-4255-8ea7-115c14a8d9a1",
  "label" : "Contact Support",
  "routeType" : "contactsupport",
  "type" : "route",
  "urlPrefix" : "contactsupport"
}