{
  "definitionName" : "helpCenter:branding-helpCenter",
  "id" : "c1a79d24-acc1-4535-ae0d-8bc508b9e60c",
  "label" : "Help Center",
  "type" : "brandingSet",
  "values" : {
    "ActionColor" : "rgb(140, 17, 49)",
    "BorderColor" : "#efefef",
    "CardBackgroundColor" : "rgba(255, 255, 255, 0)",
    "CompanyLogo" : "/file-asset/planprophetlogo?v=1&height=300&width=300",
    "DetailTextColor" : "rgba(0, 0, 0, 0.6)",
    "ErrorFontColor" : "#ff9e9e",
    "HeaderFonts" : "Montserrat",
    "LinkColor" : "rgb(140, 17, 49)",
    "LoginBackgroundColor" : "#F4F4F4",
    "LoginBackgroundImage" : "../../../../sfsites/picasso/core/external/salesforceIdentity/images/background.jpg?v=1",
    "OverlayTextColor" : "#FFFFFF",
    "PageBackgroundColor" : "#FFFFFF",
    "PrimaryFont" : "Lato",
    "TextColor" : "rgb(112, 112, 112)",
    "TextTransformStyle" : "none",
    "_ActionColorDarker" : "#5f0b21",
    "_ActionColorTrans" : "rgba(140, 17, 49, 0.9)",
    "_HoverColor" : "rgba(140, 17, 49, 0.05)",
    "_LinkColorDarker" : "#680d24",
    "_OverlayTextColorShadow" : "#000000",
    "_brandNavigationBarBackgroundColor" : "rgba(128,128,128,.75)",
    "_brandNavigationItemBackgroundColorHover" : "rgba(0,0,0,.2)",
    "_brandNavigationItemDividerColor" : "rgba(255, 255, 255, 0.2)",
    "brandNavigationBackgroundColor" : "rgb(128,128,128)",
    "brandNavigationBarBackgroundColor" : "rgba(128,128,128,.75)",
    "brandNavigationColorText" : "#FFFFFF"
  }
}